series_id,surface
0,tiled
1,concrete
2,fine_concrete
3,soft_tiles
4,soft_tiles
5,concrete
6,soft_pvc
7,concrete
8,soft_tiles
9,soft_tiles
10,soft_pvc
11,concrete
12,soft_pvc
13,soft_tiles
14,fine_concrete
15,wood
16,concrete
17,soft_pvc
18,wood
19,soft_pvc
20,soft_pvc
21,soft_tiles
22,soft_pvc
23,hard_tiles_large_space
24,concrete
25,wood
26,concrete
27,soft_tiles
28,soft_tiles
29,concrete
30,wood
31,soft_tiles
32,concrete
33,soft_pvc
34,soft_pvc
35,soft_pvc
36,fine_concrete
37,soft_tiles
38,soft_pvc
39,soft_pvc
40,soft_tiles
41,soft_tiles
42,soft_pvc
43,carpet
44,soft_pvc
45,soft_tiles
46,wood
47,hard_tiles_large_space
48,wood
49,wood
50,soft_tiles
51,soft_tiles
52,soft_pvc
53,tiled
54,carpet
55,concrete
56,tiled
57,wood
58,soft_pvc
59,hard_tiles_large_space
60,concrete
61,hard_tiles_large_space
62,concrete
63,concrete
64,concrete
65,soft_pvc
66,soft_pvc
67,soft_pvc
68,soft_pvc
69,tiled
70,concrete
71,soft_pvc
72,soft_pvc
73,tiled
74,tiled
75,wood
76,tiled
77,soft_pvc
78,concrete
79,soft_pvc
80,soft_tiles
81,tiled
82,wood
83,hard_tiles_large_space
84,concrete
85,soft_tiles
86,tiled
87,concrete
88,soft_pvc
89,concrete
90,wood
91,concrete
92,soft_tiles
93,tiled
94,tiled
95,concrete
96,soft_pvc
97,soft_pvc
98,soft_tiles
99,wood
100,tiled
101,tiled
102,soft_pvc
103,wood
104,soft_pvc
105,concrete
106,concrete
107,soft_pvc
108,wood
109,tiled
110,soft_tiles
111,hard_tiles_large_space
112,soft_pvc
113,soft_pvc
114,hard_tiles_large_space
115,soft_tiles
116,soft_pvc
117,soft_pvc
118,tiled
119,soft_pvc
120,soft_pvc
121,wood
122,fine_concrete
123,concrete
124,wood
125,tiled
126,tiled
127,wood
128,soft_pvc
129,concrete
130,soft_tiles
131,wood
132,soft_tiles
133,carpet
134,concrete
135,soft_pvc
136,soft_pvc
137,concrete
138,soft_pvc
139,soft_pvc
140,soft_tiles
141,concrete
142,soft_pvc
143,soft_pvc
144,hard_tiles_large_space
145,carpet
146,concrete
147,concrete
148,concrete
149,concrete
150,soft_tiles
151,soft_pvc
152,soft_pvc
153,soft_tiles
154,soft_pvc
155,soft_pvc
156,tiled
157,soft_pvc
158,tiled
159,soft_tiles
160,soft_tiles
161,tiled
162,soft_pvc
163,soft_pvc
164,concrete
165,soft_tiles
166,fine_concrete
167,hard_tiles_large_space
168,soft_pvc
169,tiled
170,carpet
171,soft_pvc
172,wood
173,soft_tiles
174,tiled
175,concrete
176,concrete
177,tiled
178,concrete
179,tiled
180,concrete
181,carpet
182,soft_pvc
183,soft_pvc
184,concrete
185,wood
186,tiled
187,soft_pvc
188,soft_pvc
189,soft_tiles
190,hard_tiles_large_space
191,wood
192,soft_pvc
193,concrete
194,wood
195,soft_pvc
196,wood
197,soft_tiles
198,concrete
199,soft_tiles
200,hard_tiles_large_space
201,soft_pvc
202,soft_tiles
203,tiled
204,soft_tiles
205,soft_tiles
206,soft_pvc
207,wood
208,soft_tiles
209,hard_tiles_large_space
210,soft_pvc
211,wood
212,soft_pvc
213,soft_tiles
214,wood
215,soft_tiles
216,soft_tiles
217,soft_tiles
218,soft_pvc
219,concrete
220,soft_pvc
221,soft_tiles
222,concrete
223,soft_pvc
224,soft_tiles
225,soft_pvc
226,soft_pvc
227,soft_pvc
228,soft_tiles
229,tiled
230,soft_pvc
231,hard_tiles_large_space
232,fine_concrete
233,soft_pvc
234,soft_pvc
235,soft_tiles
236,soft_pvc
237,concrete
238,concrete
239,soft_pvc
240,carpet
241,hard_tiles_large_space
242,tiled
243,soft_pvc
244,wood
245,tiled
246,wood
247,tiled
248,soft_pvc
249,soft_pvc
250,tiled
251,soft_tiles
252,tiled
253,concrete
254,concrete
255,soft_tiles
256,fine_concrete
257,soft_pvc
258,wood
259,soft_tiles
260,soft_pvc
261,soft_pvc
262,soft_pvc
263,concrete
264,soft_pvc
265,soft_tiles
266,tiled
267,tiled
268,tiled
269,soft_pvc
270,tiled
271,soft_tiles
272,concrete
273,soft_tiles
274,soft_pvc
275,hard_tiles_large_space
276,tiled
277,soft_tiles
278,soft_pvc
279,soft_tiles
280,concrete
281,wood
282,soft_pvc
283,wood
284,soft_tiles
285,soft_pvc
286,soft_pvc
287,concrete
288,tiled
289,tiled
290,tiled
291,tiled
292,hard_tiles_large_space
293,soft_tiles
294,hard_tiles_large_space
295,soft_pvc
296,soft_pvc
297,tiled
298,soft_tiles
299,wood
300,soft_tiles
301,soft_tiles
302,soft_tiles
303,concrete
304,hard_tiles_large_space
305,soft_pvc
306,tiled
307,concrete
308,concrete
309,concrete
310,tiled
311,soft_tiles
312,soft_tiles
313,soft_tiles
314,soft_pvc
315,concrete
316,soft_pvc
317,soft_tiles
318,concrete
319,soft_pvc
320,concrete
321,soft_pvc
322,soft_pvc
323,soft_tiles
324,tiled
325,wood
326,concrete
327,soft_tiles
328,tiled
329,wood
330,tiled
331,concrete
332,tiled
333,soft_pvc
334,concrete
335,concrete
336,hard_tiles_large_space
337,tiled
338,fine_concrete
339,wood
340,soft_pvc
341,tiled
342,soft_tiles
343,soft_tiles
344,wood
345,concrete
346,soft_pvc
347,soft_tiles
348,concrete
349,soft_tiles
350,tiled
351,soft_tiles
352,tiled
353,wood
354,wood
355,tiled
356,soft_tiles
357,soft_tiles
358,wood
359,soft_pvc
360,tiled
361,hard_tiles_large_space
362,concrete
363,soft_pvc
364,tiled
365,fine_concrete
366,concrete
367,wood
368,soft_tiles
369,concrete
370,concrete
371,soft_tiles
372,soft_pvc
373,concrete
374,wood
375,wood
376,soft_tiles
377,tiled
378,hard_tiles_large_space
379,concrete
380,hard_tiles_large_space
381,soft_tiles
382,wood
383,tiled
384,fine_concrete
385,concrete
386,concrete
387,soft_pvc
388,tiled
389,carpet
390,soft_pvc
391,soft_pvc
392,concrete
393,soft_pvc
394,soft_pvc
395,soft_tiles
396,soft_pvc
397,soft_pvc
398,concrete
399,concrete
400,soft_pvc
401,soft_pvc
402,soft_tiles
403,wood
404,soft_pvc
405,soft_tiles
406,soft_tiles
407,fine_concrete
408,concrete
409,soft_pvc
410,wood
411,wood
412,concrete
413,soft_pvc
414,wood
415,hard_tiles_large_space
416,soft_pvc
417,soft_pvc
418,soft_tiles
419,tiled
420,soft_tiles
421,wood
422,concrete
423,soft_pvc
424,soft_tiles
425,soft_pvc
426,wood
427,soft_pvc
428,tiled
429,hard_tiles_large_space
430,concrete
431,tiled
432,soft_pvc
433,soft_pvc
434,soft_tiles
435,wood
436,concrete
437,soft_tiles
438,soft_pvc
439,soft_pvc
440,soft_pvc
441,soft_tiles
442,soft_pvc
443,soft_pvc
444,wood
445,soft_pvc
446,tiled
447,hard_tiles_large_space
448,soft_pvc
449,wood
450,soft_pvc
451,soft_pvc
452,wood
453,concrete
454,soft_tiles
455,concrete
456,concrete
457,soft_pvc
458,soft_pvc
459,soft_pvc
460,soft_tiles
461,concrete
462,tiled
463,concrete
464,wood
465,concrete
466,soft_pvc
467,soft_tiles
468,soft_pvc
469,soft_tiles
470,soft_pvc
471,soft_tiles
472,hard_tiles_large_space
473,tiled
474,hard_tiles_large_space
475,soft_tiles
476,wood
477,concrete
478,soft_tiles
479,soft_pvc
480,soft_tiles
481,concrete
482,concrete
483,hard_tiles_large_space
484,wood
485,soft_pvc
486,soft_pvc
487,concrete
488,soft_pvc
489,concrete
490,carpet
491,soft_pvc
492,hard_tiles_large_space
493,soft_pvc
494,soft_pvc
495,wood
496,wood
497,concrete
498,concrete
499,concrete
500,concrete
501,wood
502,concrete
503,tiled
504,soft_tiles
505,tiled
506,concrete
507,concrete
508,soft_pvc
509,soft_tiles
510,soft_pvc
511,soft_pvc
512,soft_pvc
513,soft_tiles
514,soft_pvc
515,tiled
516,soft_tiles
517,wood
518,concrete
519,soft_tiles
520,hard_tiles_large_space
521,soft_tiles
522,soft_pvc
523,wood
524,tiled
525,tiled
526,soft_pvc
527,tiled
528,carpet
529,fine_concrete
530,soft_pvc
531,carpet
532,soft_pvc
533,soft_pvc
534,concrete
535,concrete
536,soft_pvc
537,soft_tiles
538,wood
539,wood
540,tiled
541,soft_tiles
542,soft_pvc
543,soft_pvc
544,soft_pvc
545,soft_tiles
546,wood
547,soft_pvc
548,soft_pvc
549,concrete
550,soft_tiles
551,soft_tiles
552,soft_tiles
553,concrete
554,soft_tiles
555,hard_tiles_large_space
556,wood
557,wood
558,concrete
559,soft_pvc
560,soft_pvc
561,fine_concrete
562,tiled
563,concrete
564,wood
565,hard_tiles_large_space
566,tiled
567,tiled
568,wood
569,hard_tiles_large_space
570,tiled
571,carpet
572,soft_pvc
573,soft_pvc
574,tiled
575,wood
576,concrete
577,hard_tiles_large_space
578,tiled
579,concrete
580,soft_tiles
581,concrete
582,concrete
583,soft_tiles
584,concrete
585,carpet
586,tiled
587,soft_pvc
588,soft_pvc
589,concrete
590,tiled
591,fine_concrete
592,soft_pvc
593,concrete
594,soft_pvc
595,concrete
596,concrete
597,wood
598,tiled
599,soft_pvc
600,concrete
601,carpet
602,soft_pvc
603,wood
604,wood
605,soft_pvc
606,soft_pvc
607,hard_tiles_large_space
608,concrete
609,soft_pvc
610,tiled
611,soft_pvc
612,soft_pvc
613,soft_pvc
614,soft_pvc
615,concrete
616,hard_tiles_large_space
617,concrete
618,soft_tiles
619,soft_tiles
620,concrete
621,soft_pvc
622,fine_concrete
623,wood
624,fine_concrete
625,soft_tiles
626,soft_pvc
627,soft_pvc
628,soft_pvc
629,soft_tiles
630,concrete
631,soft_pvc
632,wood
633,soft_pvc
634,soft_pvc
635,concrete
636,soft_tiles
637,concrete
638,soft_pvc
639,hard_tiles_large_space
640,soft_pvc
641,tiled
642,concrete
643,soft_pvc
644,soft_pvc
645,carpet
646,soft_tiles
647,concrete
648,soft_pvc
649,tiled
650,soft_pvc
651,soft_tiles
652,concrete
653,tiled
654,soft_pvc
655,wood
656,tiled
657,wood
658,soft_pvc
659,concrete
660,soft_pvc
661,soft_pvc
662,soft_pvc
663,concrete
664,concrete
665,tiled
666,soft_pvc
667,soft_pvc
668,soft_pvc
669,soft_tiles
670,soft_pvc
671,fine_concrete
672,tiled
673,soft_pvc
674,soft_tiles
675,carpet
676,soft_tiles
677,concrete
678,soft_pvc
679,wood
680,soft_pvc
681,concrete
682,soft_pvc
683,soft_tiles
684,soft_pvc
685,wood
686,wood
687,tiled
688,soft_tiles
689,wood
690,tiled
691,soft_pvc
692,soft_tiles
693,wood
694,wood
695,soft_tiles
696,soft_pvc
697,wood
698,soft_tiles
699,soft_pvc
700,wood
701,concrete
702,soft_pvc
703,hard_tiles_large_space
704,soft_tiles
705,soft_tiles
706,tiled
707,soft_pvc
708,wood
709,soft_pvc
710,soft_tiles
711,tiled
712,hard_tiles_large_space
713,soft_tiles
714,wood
715,tiled
716,concrete
717,soft_pvc
718,tiled
719,soft_tiles
720,soft_tiles
721,soft_pvc
722,tiled
723,fine_concrete
724,soft_tiles
725,concrete
726,concrete
727,wood
728,soft_pvc
729,concrete
730,tiled
731,hard_tiles_large_space
732,concrete
733,fine_concrete
734,concrete
735,concrete
736,soft_tiles
737,concrete
738,wood
739,fine_concrete
740,tiled
741,soft_pvc
742,concrete
743,wood
744,wood
745,soft_pvc
746,concrete
747,concrete
748,soft_pvc
749,soft_pvc
750,soft_tiles
751,soft_tiles
752,soft_pvc
753,fine_concrete
754,soft_tiles
755,concrete
756,soft_pvc
757,soft_tiles
758,soft_pvc
759,soft_pvc
760,soft_pvc
761,tiled
762,concrete
763,soft_tiles
764,soft_tiles
765,soft_pvc
766,wood
767,concrete
768,soft_pvc
769,fine_concrete
770,soft_pvc
771,hard_tiles_large_space
772,concrete
773,wood
774,tiled
775,wood
776,concrete
777,soft_pvc
778,concrete
779,soft_pvc
780,soft_pvc
781,concrete
782,wood
783,soft_tiles
784,soft_pvc
785,carpet
786,soft_pvc
787,carpet
788,tiled
789,wood
790,wood
791,wood
792,soft_pvc
793,wood
794,carpet
795,wood
796,soft_pvc
797,wood
798,wood
799,concrete
800,soft_pvc
801,hard_tiles_large_space
802,tiled
803,wood
804,concrete
805,soft_pvc
806,concrete
807,tiled
808,fine_concrete
809,soft_pvc
810,soft_pvc
811,concrete
812,soft_tiles
813,concrete
814,soft_tiles
815,soft_pvc
816,soft_pvc
817,soft_tiles
818,soft_tiles
819,soft_pvc
820,carpet
821,concrete
822,concrete
823,soft_pvc
824,soft_pvc
825,soft_pvc
826,soft_tiles
827,concrete
828,soft_pvc
829,soft_pvc
830,soft_pvc
831,concrete
832,hard_tiles_large_space
833,wood
834,soft_pvc
835,soft_pvc
836,soft_pvc
837,soft_pvc
838,wood
839,fine_concrete
840,soft_pvc
841,soft_pvc
842,tiled
843,tiled
844,soft_pvc
845,concrete
846,soft_pvc
847,concrete
848,tiled
849,wood
850,soft_pvc
851,soft_pvc
852,soft_pvc
853,soft_pvc
854,concrete
855,tiled
856,tiled
857,wood
858,soft_tiles
859,soft_pvc
860,wood
861,soft_tiles
862,soft_pvc
863,concrete
864,tiled
865,carpet
866,wood
867,soft_tiles
868,soft_pvc
869,tiled
870,soft_tiles
871,soft_pvc
872,tiled
873,tiled
874,tiled
875,carpet
876,tiled
877,soft_pvc
878,tiled
879,soft_tiles
880,soft_pvc
881,carpet
882,soft_tiles
883,wood
884,soft_pvc
885,tiled
886,concrete
887,tiled
888,soft_pvc
889,soft_pvc
890,tiled
891,fine_concrete
892,soft_pvc
893,concrete
894,concrete
895,soft_pvc
896,wood
897,concrete
898,tiled
899,soft_pvc
900,tiled
901,soft_pvc
902,soft_pvc
903,soft_pvc
904,tiled
905,hard_tiles_large_space
906,soft_pvc
907,soft_tiles
908,wood
909,concrete
910,concrete
911,concrete
912,concrete
913,concrete
914,fine_concrete
915,soft_pvc
916,soft_pvc
917,tiled
918,fine_concrete
919,soft_tiles
920,soft_pvc
921,soft_pvc
922,tiled
923,tiled
924,soft_pvc
925,concrete
926,concrete
927,concrete
928,wood
929,tiled
930,soft_pvc
931,tiled
932,concrete
933,concrete
934,soft_tiles
935,concrete
936,soft_pvc
937,wood
938,soft_pvc
939,wood
940,concrete
941,tiled
942,wood
943,hard_tiles_large_space
944,concrete
945,soft_pvc
946,wood
947,soft_tiles
948,hard_tiles_large_space
949,soft_pvc
950,soft_pvc
951,soft_pvc
952,concrete
953,hard_tiles_large_space
954,soft_pvc
955,concrete
956,wood
957,wood
958,soft_tiles
959,soft_pvc
960,soft_pvc
961,soft_pvc
962,concrete
963,soft_pvc
964,concrete
965,soft_pvc
966,concrete
967,soft_tiles
968,concrete
969,soft_tiles
970,soft_pvc
971,soft_pvc
972,soft_pvc
973,fine_concrete
974,wood
975,soft_pvc
976,concrete
977,tiled
978,wood
979,hard_tiles_large_space
980,soft_pvc
981,wood
982,wood
983,soft_tiles
984,hard_tiles_large_space
985,wood
986,carpet
987,wood
988,concrete
989,soft_pvc
990,concrete
991,soft_pvc
992,wood
993,concrete
994,hard_tiles_large_space
995,wood
996,concrete
997,soft_pvc
998,tiled
999,concrete
1000,soft_pvc
1001,fine_concrete
1002,concrete
1003,hard_tiles_large_space
1004,soft_pvc
1005,soft_pvc
1006,soft_pvc
1007,concrete
1008,concrete
1009,tiled
1010,concrete
1011,concrete
1012,carpet
1013,soft_pvc
1014,soft_pvc
1015,tiled
1016,tiled
1017,hard_tiles_large_space
1018,soft_pvc
1019,wood
1020,wood
1021,hard_tiles_large_space
1022,tiled
1023,concrete
1024,soft_tiles
1025,soft_pvc
1026,soft_pvc
1027,soft_tiles
1028,concrete
1029,wood
1030,concrete
1031,concrete
1032,hard_tiles_large_space
1033,soft_pvc
1034,tiled
1035,wood
1036,soft_pvc
1037,wood
1038,soft_pvc
1039,soft_pvc
1040,soft_pvc
1041,soft_pvc
1042,wood
1043,soft_pvc
1044,wood
1045,concrete
1046,soft_pvc
1047,concrete
1048,concrete
1049,soft_pvc
1050,wood
1051,soft_pvc
1052,wood
1053,soft_pvc
1054,soft_pvc
1055,soft_tiles
1056,soft_pvc
1057,concrete
1058,carpet
1059,fine_concrete
1060,soft_tiles
1061,soft_pvc
1062,tiled
1063,hard_tiles_large_space
1064,wood
1065,soft_tiles
1066,soft_pvc
1067,tiled
1068,concrete
1069,soft_tiles
1070,hard_tiles_large_space
1071,carpet
1072,soft_pvc
1073,concrete
1074,wood
1075,fine_concrete
1076,wood
1077,concrete
1078,soft_pvc
1079,soft_pvc
1080,soft_tiles
1081,concrete
1082,concrete
1083,soft_pvc
1084,fine_concrete
1085,tiled
1086,concrete
1087,soft_pvc
1088,wood
1089,soft_pvc
1090,soft_pvc
1091,wood
1092,tiled
1093,tiled
1094,wood
1095,soft_pvc
1096,wood
1097,soft_pvc
1098,wood
1099,concrete
1100,soft_tiles
1101,wood
1102,wood
1103,wood
1104,concrete
1105,wood
1106,tiled
1107,soft_pvc
1108,concrete
1109,concrete
1110,soft_tiles
1111,soft_pvc
1112,soft_tiles
1113,concrete
1114,soft_pvc
1115,soft_pvc
1116,wood
1117,soft_pvc
1118,soft_pvc
1119,concrete
1120,tiled
1121,soft_pvc
1122,soft_tiles
1123,soft_pvc
1124,tiled
1125,concrete
1126,concrete
1127,tiled
1128,soft_pvc
1129,concrete
1130,soft_pvc
1131,soft_pvc
1132,carpet
1133,concrete
1134,soft_pvc
1135,soft_pvc
1136,tiled
1137,wood
1138,soft_tiles
1139,hard_tiles_large_space
1140,wood
1141,hard_tiles_large_space
1142,concrete
1143,soft_pvc
1144,soft_pvc
1145,fine_concrete
1146,hard_tiles_large_space
1147,soft_tiles
1148,soft_pvc
1149,fine_concrete
1150,soft_pvc
1151,soft_pvc
1152,soft_pvc
1153,soft_tiles
1154,soft_pvc
1155,concrete
1156,soft_pvc
1157,tiled
1158,fine_concrete
1159,soft_pvc
1160,concrete
1161,tiled
1162,fine_concrete
1163,concrete
1164,soft_pvc
1165,carpet
1166,soft_pvc
1167,wood
1168,soft_pvc
1169,wood
1170,concrete
1171,wood
1172,tiled
1173,soft_pvc
1174,soft_pvc
1175,soft_pvc
1176,hard_tiles_large_space
1177,wood
1178,wood
1179,tiled
1180,tiled
1181,soft_pvc
1182,soft_pvc
1183,wood
1184,hard_tiles_large_space
1185,hard_tiles_large_space
1186,tiled
1187,concrete
1188,tiled
1189,soft_tiles
1190,concrete
1191,soft_pvc
1192,tiled
1193,wood
1194,wood
1195,soft_pvc
1196,wood
1197,soft_pvc
1198,concrete
1199,soft_pvc
1200,tiled
1201,hard_tiles_large_space
1202,soft_pvc
1203,concrete
1204,soft_pvc
1205,soft_tiles
1206,soft_pvc
1207,soft_tiles
1208,concrete
1209,soft_pvc
1210,concrete
1211,tiled
1212,carpet
1213,soft_pvc
1214,tiled
1215,wood
1216,tiled
1217,tiled
1218,soft_pvc
1219,wood
1220,soft_pvc
1221,soft_pvc
1222,soft_pvc
1223,wood
1224,soft_tiles
1225,soft_pvc
1226,wood
1227,soft_pvc
1228,wood
1229,wood
1230,soft_pvc
1231,hard_tiles_large_space
1232,hard_tiles_large_space
1233,wood
1234,concrete
1235,soft_tiles
1236,soft_pvc
1237,tiled
1238,concrete
1239,hard_tiles_large_space
1240,hard_tiles_large_space
1241,wood
1242,concrete
1243,concrete
1244,soft_pvc
1245,tiled
1246,wood
1247,tiled
1248,fine_concrete
1249,concrete
1250,soft_pvc
1251,concrete
1252,concrete
1253,soft_pvc
1254,soft_pvc
1255,concrete
1256,soft_pvc
1257,carpet
1258,soft_pvc
1259,hard_tiles_large_space
1260,wood
1261,soft_pvc
1262,soft_pvc
1263,wood
1264,concrete
1265,soft_pvc
1266,hard_tiles_large_space
1267,soft_pvc
1268,soft_pvc
1269,fine_concrete
1270,soft_pvc
1271,tiled
1272,soft_pvc
1273,wood
1274,soft_pvc
1275,concrete
1276,wood
1277,concrete
1278,tiled
1279,soft_pvc
1280,concrete
1281,concrete
1282,concrete
1283,soft_pvc
1284,soft_pvc
1285,soft_pvc
1286,tiled
1287,concrete
1288,soft_tiles
1289,soft_tiles
1290,fine_concrete
1291,soft_tiles
1292,wood
1293,concrete
1294,hard_tiles_large_space
1295,tiled
1296,wood
1297,tiled
1298,concrete
1299,soft_tiles
1300,wood
1301,tiled
1302,carpet
1303,soft_pvc
1304,hard_tiles_large_space
1305,soft_pvc
1306,concrete
1307,concrete
1308,carpet
1309,concrete
1310,soft_pvc
1311,soft_pvc
1312,concrete
1313,concrete
1314,soft_pvc
1315,wood
1316,concrete
1317,soft_pvc
1318,wood
1319,tiled
1320,tiled
1321,carpet
1322,hard_tiles_large_space
1323,soft_pvc
1324,soft_pvc
1325,concrete
1326,concrete
1327,soft_pvc
1328,soft_pvc
1329,concrete
1330,tiled
1331,soft_tiles
1332,soft_pvc
1333,fine_concrete
1334,concrete
1335,tiled
1336,soft_tiles
1337,carpet
1338,soft_pvc
1339,soft_pvc
1340,soft_pvc
1341,soft_pvc
1342,carpet
1343,soft_pvc
1344,soft_pvc
1345,concrete
1346,soft_pvc
1347,soft_pvc
1348,tiled
1349,tiled
1350,concrete
1351,concrete
1352,soft_pvc
1353,wood
1354,wood
1355,concrete
1356,carpet
1357,soft_pvc
1358,soft_pvc
1359,soft_pvc
1360,soft_pvc
1361,concrete
1362,hard_tiles_large_space
1363,soft_pvc
1364,concrete
1365,tiled
1366,hard_tiles_large_space
1367,soft_tiles
1368,tiled
1369,soft_pvc
1370,soft_pvc
1371,wood
1372,wood
1373,wood
1374,wood
1375,tiled
1376,concrete
1377,tiled
1378,tiled
1379,soft_pvc
1380,concrete
1381,tiled
1382,soft_tiles
1383,concrete
1384,concrete
1385,wood
1386,concrete
1387,fine_concrete
1388,carpet
1389,concrete
1390,tiled
1391,tiled
1392,soft_pvc
1393,concrete
1394,tiled
1395,concrete
1396,concrete
1397,concrete
1398,wood
1399,soft_pvc
1400,carpet
1401,concrete
1402,soft_tiles
1403,wood
1404,soft_pvc
1405,hard_tiles_large_space
1406,soft_pvc
1407,soft_tiles
1408,tiled
1409,soft_tiles
1410,concrete
1411,soft_pvc
1412,concrete
1413,concrete
1414,soft_pvc
1415,soft_pvc
1416,soft_pvc
1417,soft_pvc
1418,wood
1419,soft_pvc
1420,soft_pvc
1421,wood
1422,hard_tiles_large_space
1423,soft_pvc
1424,concrete
1425,soft_tiles
1426,soft_tiles
1427,tiled
1428,soft_tiles
1429,soft_tiles
1430,concrete
1431,concrete
1432,concrete
1433,soft_tiles
1434,soft_pvc
1435,carpet
1436,tiled
1437,concrete
1438,wood
1439,wood
1440,wood
1441,soft_pvc
1442,soft_pvc
1443,hard_tiles_large_space
1444,soft_pvc
1445,wood
1446,hard_tiles_large_space
1447,concrete
1448,hard_tiles_large_space
1449,soft_pvc
1450,fine_concrete
1451,soft_pvc
1452,soft_pvc
1453,concrete
1454,wood
1455,carpet
1456,soft_pvc
1457,soft_pvc
1458,tiled
1459,concrete
1460,soft_pvc
1461,soft_pvc
1462,tiled
1463,soft_pvc
1464,tiled
1465,tiled
1466,tiled
1467,wood
1468,soft_pvc
1469,soft_pvc
1470,wood
1471,concrete
1472,soft_pvc
1473,concrete
1474,tiled
1475,concrete
1476,concrete
1477,carpet
1478,soft_pvc
1479,concrete
1480,hard_tiles_large_space
1481,concrete
1482,soft_pvc
1483,wood
1484,soft_pvc
1485,concrete
1486,soft_pvc
1487,tiled
1488,tiled
1489,wood
1490,soft_pvc
1491,wood
1492,soft_pvc
1493,soft_pvc
1494,concrete
1495,soft_tiles
1496,fine_concrete
1497,tiled
1498,soft_pvc
1499,hard_tiles_large_space
1500,soft_pvc
1501,fine_concrete
1502,soft_pvc
1503,hard_tiles_large_space
1504,wood
1505,soft_tiles
1506,soft_pvc
1507,soft_pvc
1508,wood
1509,wood
1510,wood
1511,hard_tiles_large_space
1512,soft_pvc
1513,wood
1514,wood
1515,soft_pvc
1516,tiled
1517,soft_tiles
1518,soft_pvc
1519,soft_pvc
1520,soft_pvc
1521,wood
1522,soft_tiles
1523,wood
1524,concrete
1525,concrete
1526,hard_tiles_large_space
1527,tiled
1528,wood
1529,fine_concrete
1530,soft_pvc
1531,soft_pvc
1532,concrete
1533,soft_tiles
1534,fine_concrete
1535,soft_tiles
1536,tiled
1537,soft_pvc
1538,wood
1539,concrete
1540,tiled
1541,soft_pvc
1542,concrete
1543,soft_pvc
1544,wood
1545,wood
1546,concrete
1547,wood
1548,soft_pvc
1549,tiled
1550,wood
1551,concrete
1552,wood
1553,concrete
1554,tiled
1555,concrete
1556,wood
1557,concrete
1558,concrete
1559,soft_pvc
1560,soft_pvc
1561,soft_tiles
1562,tiled
1563,hard_tiles_large_space
1564,soft_pvc
1565,hard_tiles_large_space
1566,soft_tiles
1567,concrete
1568,soft_tiles
1569,soft_pvc
1570,concrete
1571,concrete
1572,soft_tiles
1573,tiled
1574,concrete
1575,soft_pvc
1576,soft_tiles
1577,tiled
1578,tiled
1579,concrete
1580,soft_pvc
1581,soft_tiles
1582,tiled
1583,carpet
1584,concrete
1585,concrete
1586,concrete
1587,carpet
1588,hard_tiles_large_space
1589,concrete
1590,tiled
1591,wood
1592,wood
1593,soft_pvc
1594,wood
1595,concrete
1596,tiled
1597,soft_pvc
1598,soft_tiles
1599,tiled
1600,soft_pvc
1601,concrete
1602,soft_pvc
1603,soft_tiles
1604,wood
1605,soft_pvc
1606,concrete
1607,concrete
1608,tiled
1609,wood
1610,concrete
1611,fine_concrete
1612,concrete
1613,soft_pvc
1614,soft_pvc
1615,soft_pvc
1616,soft_pvc
1617,concrete
1618,soft_pvc
1619,soft_pvc
1620,soft_pvc
1621,tiled
1622,tiled
1623,soft_tiles
1624,wood
1625,soft_pvc
1626,wood
1627,concrete
1628,hard_tiles_large_space
1629,concrete
1630,soft_pvc
1631,soft_pvc
1632,wood
1633,soft_pvc
1634,concrete
1635,wood
1636,soft_pvc
1637,soft_pvc
1638,tiled
1639,soft_pvc
1640,wood
1641,wood
1642,soft_pvc
1643,tiled
1644,concrete
1645,soft_pvc
1646,soft_pvc
1647,concrete
1648,soft_pvc
1649,hard_tiles_large_space
1650,soft_pvc
1651,concrete
1652,hard_tiles_large_space
1653,soft_pvc
1654,soft_pvc
1655,wood
1656,soft_pvc
1657,wood
1658,soft_pvc
1659,wood
1660,soft_pvc
1661,soft_pvc
1662,soft_pvc
1663,concrete
1664,tiled
1665,soft_pvc
1666,wood
1667,hard_tiles_large_space
1668,concrete
1669,wood
1670,concrete
1671,hard_tiles_large_space
1672,tiled
1673,soft_pvc
1674,soft_pvc
1675,soft_pvc
1676,concrete
1677,soft_pvc
1678,soft_tiles
1679,concrete
1680,soft_pvc
1681,concrete
1682,hard_tiles_large_space
1683,tiled
1684,concrete
1685,tiled
1686,concrete
1687,concrete
1688,soft_tiles
1689,concrete
1690,tiled
1691,soft_pvc
1692,soft_pvc
1693,tiled
1694,wood
1695,carpet
1696,concrete
1697,soft_pvc
1698,tiled
1699,soft_pvc
1700,hard_tiles_large_space
1701,carpet
1702,soft_pvc
1703,concrete
1704,soft_pvc
1705,concrete
1706,soft_pvc
1707,soft_pvc
1708,soft_pvc
1709,hard_tiles_large_space
1710,hard_tiles_large_space
1711,soft_pvc
1712,concrete
1713,concrete
1714,soft_pvc
1715,tiled
1716,soft_pvc
1717,soft_pvc
1718,soft_pvc
1719,concrete
1720,concrete
1721,tiled
1722,concrete
1723,soft_tiles
1724,tiled
1725,wood
1726,tiled
1727,soft_pvc
1728,soft_pvc
1729,concrete
1730,soft_pvc
1731,soft_pvc
1732,tiled
1733,tiled
1734,tiled
1735,concrete
1736,soft_pvc
1737,soft_pvc
1738,concrete
1739,concrete
1740,tiled
1741,concrete
1742,tiled
1743,wood
1744,tiled
1745,concrete
1746,wood
1747,hard_tiles_large_space
1748,tiled
1749,soft_pvc
1750,soft_pvc
1751,soft_pvc
1752,hard_tiles_large_space
1753,tiled
1754,concrete
1755,concrete
1756,hard_tiles_large_space
1757,soft_pvc
1758,tiled
1759,wood
1760,hard_tiles_large_space
1761,soft_pvc
1762,concrete
1763,wood
1764,concrete
1765,concrete
1766,tiled
1767,concrete
1768,soft_pvc
1769,concrete
1770,soft_pvc
1771,wood
1772,wood
1773,concrete
1774,soft_pvc
1775,soft_pvc
1776,wood
1777,concrete
1778,soft_pvc
1779,wood
1780,wood
1781,wood
1782,wood
1783,soft_pvc
1784,soft_pvc
1785,soft_pvc
1786,wood
1787,soft_pvc
1788,hard_tiles_large_space
1789,wood
1790,soft_pvc
1791,wood
1792,soft_pvc
1793,soft_pvc
1794,concrete
1795,tiled
1796,concrete
1797,concrete
1798,concrete
1799,soft_pvc
1800,concrete
1801,soft_pvc
1802,soft_pvc
1803,wood
1804,concrete
1805,wood
1806,concrete
1807,concrete
1808,soft_tiles
1809,concrete
1810,soft_pvc
1811,soft_tiles
1812,soft_pvc
1813,concrete
1814,concrete
1815,wood
1816,soft_tiles
1817,wood
1818,soft_pvc
1819,soft_pvc
1820,soft_pvc
1821,soft_pvc
1822,soft_pvc
1823,soft_pvc
1824,wood
1825,wood
1826,concrete
1827,concrete
1828,soft_pvc
1829,concrete
1830,soft_pvc
1831,wood
1832,carpet
1833,concrete
1834,soft_pvc
1835,tiled
1836,concrete
1837,concrete
1838,soft_pvc
1839,concrete
1840,soft_pvc
1841,soft_pvc
1842,soft_pvc
1843,wood
1844,concrete
1845,soft_tiles
1846,tiled
1847,wood
1848,concrete
1849,soft_pvc
1850,tiled
1851,concrete
1852,soft_pvc
1853,wood
1854,tiled
1855,soft_pvc
1856,soft_pvc
1857,soft_pvc
1858,wood
1859,concrete
1860,concrete
1861,concrete
1862,tiled
1863,hard_tiles_large_space
1864,soft_pvc
1865,concrete
1866,wood
1867,soft_pvc
1868,hard_tiles_large_space
1869,tiled
1870,wood
1871,soft_pvc
1872,concrete
1873,tiled
1874,tiled
1875,concrete
1876,concrete
1877,soft_pvc
1878,soft_pvc
1879,wood
1880,concrete
1881,concrete
1882,soft_pvc
1883,soft_pvc
1884,concrete
1885,tiled
1886,soft_pvc
1887,tiled
1888,soft_pvc
1889,concrete
1890,carpet
1891,concrete
1892,tiled
1893,soft_pvc
1894,soft_pvc
1895,soft_pvc
1896,concrete
1897,wood
1898,concrete
1899,tiled
1900,soft_pvc
1901,carpet
1902,concrete
1903,hard_tiles_large_space
1904,tiled
1905,concrete
1906,concrete
1907,soft_pvc
1908,tiled
1909,soft_pvc
1910,wood
1911,tiled
1912,concrete
1913,soft_pvc
1914,soft_pvc
1915,fine_concrete
1916,soft_pvc
1917,soft_pvc
1918,concrete
1919,soft_pvc
1920,wood
1921,concrete
1922,soft_pvc
1923,concrete
1924,wood
1925,concrete
1926,tiled
1927,tiled
1928,tiled
1929,soft_pvc
1930,hard_tiles_large_space
1931,tiled
1932,soft_pvc
1933,tiled
1934,tiled
1935,carpet
1936,wood
1937,soft_pvc
1938,tiled
1939,wood
1940,concrete
1941,hard_tiles_large_space
1942,concrete
1943,wood
1944,concrete
1945,wood
1946,wood
1947,concrete
1948,concrete
1949,wood
1950,soft_pvc
1951,wood
1952,soft_pvc
1953,tiled
1954,wood
1955,fine_concrete
1956,soft_pvc
1957,concrete
1958,tiled
1959,wood
1960,concrete
1961,hard_tiles_large_space
1962,concrete
1963,soft_pvc
1964,concrete
1965,concrete
1966,tiled
1967,concrete
1968,soft_tiles
1969,wood
1970,wood
1971,wood
1972,concrete
1973,hard_tiles_large_space
1974,tiled
1975,soft_tiles
1976,soft_pvc
1977,tiled
1978,tiled
1979,concrete
1980,soft_pvc
1981,concrete
1982,soft_pvc
1983,tiled
1984,concrete
1985,soft_pvc
1986,soft_pvc
1987,wood
1988,concrete
1989,tiled
1990,wood
1991,carpet
1992,soft_pvc
1993,concrete
1994,tiled
1995,soft_pvc
1996,concrete
1997,wood
1998,wood
1999,wood
2000,soft_pvc
2001,soft_pvc
2002,carpet
2003,soft_pvc
2004,concrete
2005,fine_concrete
2006,soft_pvc
2007,concrete
2008,soft_pvc
2009,soft_pvc
2010,wood
2011,tiled
2012,soft_pvc
2013,wood
2014,soft_pvc
2015,concrete
2016,wood
2017,soft_pvc
2018,soft_pvc
2019,soft_pvc
2020,soft_pvc
2021,wood
2022,soft_pvc
2023,soft_pvc
2024,soft_pvc
2025,wood
2026,concrete
2027,hard_tiles_large_space
2028,soft_pvc
2029,soft_pvc
2030,tiled
2031,soft_pvc
2032,wood
2033,hard_tiles_large_space
2034,soft_pvc
2035,wood
2036,concrete
2037,soft_pvc
2038,soft_pvc
2039,hard_tiles_large_space
2040,concrete
2041,concrete
2042,concrete
2043,concrete
2044,tiled
2045,tiled
2046,soft_pvc
2047,tiled
2048,wood
2049,concrete
2050,tiled
2051,soft_pvc
2052,concrete
2053,soft_tiles
2054,wood
2055,wood
2056,soft_pvc
2057,soft_pvc
2058,concrete
2059,concrete
2060,concrete
2061,wood
2062,tiled
2063,soft_pvc
2064,soft_pvc
2065,soft_pvc
2066,concrete
2067,soft_pvc
2068,concrete
2069,concrete
2070,concrete
2071,soft_pvc
2072,concrete
2073,soft_pvc
2074,wood
2075,concrete
2076,concrete
2077,concrete
2078,wood
2079,concrete
2080,tiled
2081,soft_pvc
2082,soft_pvc
2083,hard_tiles_large_space
2084,fine_concrete
2085,tiled
2086,soft_tiles
2087,wood
2088,tiled
2089,wood
2090,soft_pvc
2091,wood
2092,concrete
2093,soft_pvc
2094,hard_tiles_large_space
2095,soft_pvc
2096,soft_pvc
2097,soft_pvc
2098,soft_pvc
2099,hard_tiles_large_space
2100,concrete
2101,fine_concrete
2102,concrete
2103,concrete
2104,soft_pvc
2105,soft_pvc
2106,soft_pvc
2107,wood
2108,tiled
2109,concrete
2110,carpet
2111,soft_pvc
2112,concrete
2113,soft_pvc
2114,soft_pvc
2115,wood
2116,tiled
2117,concrete
2118,concrete
2119,soft_pvc
2120,tiled
2121,wood
2122,soft_pvc
2123,wood
2124,soft_pvc
2125,soft_pvc
2126,concrete
2127,hard_tiles_large_space
2128,concrete
2129,tiled
2130,wood
2131,wood
2132,concrete
2133,tiled
2134,fine_concrete
2135,soft_pvc
2136,tiled
2137,soft_pvc
2138,concrete
2139,concrete
2140,concrete
2141,soft_pvc
2142,soft_pvc
2143,fine_concrete
2144,soft_pvc
2145,wood
2146,soft_pvc
2147,soft_pvc
2148,concrete
2149,soft_pvc
2150,soft_pvc
2151,fine_concrete
2152,concrete
2153,wood
2154,soft_pvc
2155,soft_pvc
2156,soft_pvc
2157,soft_pvc
2158,soft_pvc
2159,wood
2160,soft_pvc
2161,soft_pvc
2162,concrete
2163,tiled
2164,tiled
2165,tiled
2166,soft_pvc
2167,concrete
2168,wood
2169,tiled
2170,soft_pvc
2171,wood
2172,soft_pvc
2173,soft_pvc
2174,wood
2175,wood
2176,concrete
2177,concrete
2178,hard_tiles_large_space
2179,tiled
2180,concrete
2181,tiled
2182,concrete
2183,concrete
2184,concrete
2185,tiled
2186,soft_pvc
2187,wood
2188,soft_pvc
2189,soft_pvc
2190,tiled
2191,soft_tiles
2192,concrete
2193,wood
2194,soft_pvc
2195,concrete
2196,soft_pvc
2197,soft_pvc
2198,soft_pvc
2199,tiled
2200,hard_tiles_large_space
2201,soft_pvc
2202,concrete
2203,concrete
2204,soft_pvc
2205,concrete
2206,soft_pvc
2207,wood
2208,wood
2209,tiled
2210,soft_pvc
2211,soft_pvc
2212,concrete
2213,wood
2214,concrete
2215,tiled
2216,concrete
2217,wood
2218,wood
2219,tiled
2220,soft_pvc
2221,soft_pvc
2222,tiled
2223,soft_pvc
2224,concrete
2225,concrete
2226,soft_pvc
2227,wood
2228,wood
2229,soft_pvc
2230,concrete
2231,wood
2232,soft_pvc
2233,wood
2234,concrete
2235,hard_tiles_large_space
2236,soft_pvc
2237,wood
2238,soft_pvc
2239,soft_pvc
2240,wood
2241,concrete
2242,concrete
2243,concrete
2244,soft_pvc
2245,soft_pvc
2246,wood
2247,concrete
2248,tiled
2249,hard_tiles_large_space
2250,soft_tiles
2251,wood
2252,wood
2253,fine_concrete
2254,concrete
2255,fine_concrete
2256,tiled
2257,tiled
2258,soft_pvc
2259,soft_pvc
2260,soft_pvc
2261,soft_pvc
2262,wood
2263,concrete
2264,soft_pvc
2265,tiled
2266,soft_pvc
2267,concrete
2268,soft_pvc
2269,wood
2270,soft_pvc
2271,wood
2272,soft_pvc
2273,wood
2274,concrete
2275,soft_pvc
2276,tiled
2277,tiled
2278,soft_pvc
2279,wood
2280,tiled
2281,soft_pvc
2282,soft_pvc
2283,tiled
2284,carpet
2285,concrete
2286,carpet
2287,concrete
2288,hard_tiles_large_space
2289,concrete
2290,concrete
2291,concrete
2292,soft_pvc
2293,tiled
2294,wood
2295,hard_tiles_large_space
2296,wood
2297,soft_tiles
2298,carpet
2299,soft_pvc
2300,soft_pvc
2301,concrete
2302,fine_concrete
2303,soft_pvc
2304,wood
2305,fine_concrete
2306,concrete
2307,concrete
2308,soft_pvc
2309,concrete
2310,soft_pvc
2311,concrete
2312,soft_pvc
2313,soft_pvc
2314,tiled
2315,wood
2316,wood
2317,soft_pvc
2318,concrete
2319,concrete
2320,soft_pvc
2321,wood
2322,wood
2323,wood
2324,concrete
2325,tiled
2326,tiled
2327,soft_pvc
2328,soft_pvc
2329,wood
2330,soft_pvc
2331,soft_pvc
2332,wood
2333,soft_pvc
2334,soft_pvc
2335,wood
2336,concrete
2337,wood
2338,soft_pvc
2339,soft_pvc
2340,concrete
2341,carpet
2342,soft_pvc
2343,hard_tiles_large_space
2344,concrete
2345,soft_pvc
2346,concrete
2347,soft_pvc
2348,tiled
2349,tiled
2350,soft_pvc
2351,tiled
2352,soft_pvc
2353,wood
2354,soft_pvc
2355,soft_pvc
2356,soft_pvc
2357,fine_concrete
2358,soft_pvc
2359,wood
2360,hard_tiles_large_space
2361,wood
2362,concrete
2363,fine_concrete
2364,soft_pvc
2365,soft_tiles
2366,soft_pvc
2367,wood
2368,wood
2369,wood
2370,soft_tiles
2371,wood
2372,soft_pvc
2373,hard_tiles_large_space
2374,soft_pvc
2375,wood
2376,soft_pvc
2377,concrete
2378,tiled
2379,soft_pvc
2380,tiled
2381,soft_pvc
2382,tiled
2383,soft_pvc
2384,tiled
2385,fine_concrete
2386,concrete
2387,hard_tiles_large_space
2388,wood
2389,soft_pvc
2390,soft_pvc
2391,soft_pvc
2392,soft_tiles
2393,soft_pvc
2394,soft_pvc
2395,concrete
2396,concrete
2397,concrete
2398,tiled
2399,wood
2400,concrete
2401,concrete
2402,soft_pvc
2403,carpet
2404,tiled
2405,tiled
2406,soft_pvc
2407,soft_pvc
2408,concrete
2409,concrete
2410,soft_pvc
2411,wood
2412,tiled
2413,concrete
2414,wood
2415,wood
2416,tiled
2417,tiled
2418,soft_pvc
2419,soft_pvc
2420,soft_pvc
2421,soft_pvc
2422,tiled
2423,soft_pvc
2424,soft_pvc
2425,concrete
2426,wood
2427,tiled
2428,concrete
2429,wood
2430,wood
2431,tiled
2432,wood
2433,concrete
2434,soft_pvc
2435,soft_pvc
2436,concrete
2437,tiled
2438,soft_pvc
2439,fine_concrete
2440,concrete
2441,soft_pvc
2442,hard_tiles_large_space
2443,soft_pvc
2444,hard_tiles_large_space
2445,wood
2446,concrete
2447,soft_pvc
2448,concrete
2449,soft_pvc
2450,tiled
2451,concrete
2452,soft_pvc
2453,concrete
2454,concrete
2455,tiled
2456,concrete
2457,concrete
2458,soft_pvc
2459,concrete
2460,soft_pvc
2461,wood
2462,soft_pvc
2463,concrete
2464,wood
2465,carpet
2466,wood
2467,soft_pvc
2468,fine_concrete
2469,soft_pvc
2470,wood
2471,tiled
2472,soft_pvc
2473,concrete
2474,wood
2475,soft_pvc
2476,hard_tiles_large_space
2477,concrete
2478,concrete
2479,soft_pvc
2480,concrete
2481,soft_pvc
2482,soft_pvc
2483,wood
2484,carpet
2485,tiled
2486,soft_pvc
2487,soft_pvc
2488,hard_tiles_large_space
2489,concrete
2490,hard_tiles_large_space
2491,concrete
2492,soft_pvc
2493,concrete
2494,soft_pvc
2495,hard_tiles_large_space
2496,soft_pvc
2497,soft_pvc
2498,wood
2499,concrete
2500,wood
2501,concrete
2502,soft_pvc
2503,wood
2504,soft_pvc
2505,wood
2506,concrete
2507,concrete
2508,tiled
2509,carpet
2510,wood
2511,concrete
2512,soft_pvc
2513,soft_pvc
2514,fine_concrete
2515,tiled
2516,soft_pvc
2517,wood
2518,wood
2519,tiled
2520,soft_pvc
2521,soft_pvc
2522,fine_concrete
2523,wood
2524,soft_pvc
2525,soft_pvc
2526,wood
2527,tiled
2528,wood
2529,soft_pvc
2530,wood
2531,soft_pvc
2532,tiled
2533,tiled
2534,concrete
2535,concrete
2536,tiled
2537,soft_pvc
2538,soft_tiles
2539,soft_pvc
2540,tiled
2541,hard_tiles_large_space
2542,soft_pvc
2543,tiled
2544,concrete
2545,concrete
2546,wood
2547,concrete
2548,soft_pvc
2549,concrete
2550,tiled
2551,wood
2552,wood
2553,wood
2554,tiled
2555,soft_pvc
2556,tiled
2557,hard_tiles_large_space
2558,wood
2559,soft_pvc
2560,tiled
2561,soft_pvc
2562,concrete
2563,soft_pvc
2564,tiled
2565,soft_pvc
2566,concrete
2567,wood
2568,concrete
2569,wood
2570,concrete
2571,soft_pvc
2572,soft_pvc
2573,tiled
2574,wood
2575,wood
2576,soft_pvc
2577,wood
2578,soft_pvc
2579,soft_pvc
2580,tiled
2581,concrete
2582,wood
2583,concrete
2584,wood
2585,soft_pvc
2586,concrete
2587,concrete
2588,concrete
2589,soft_pvc
2590,soft_pvc
2591,concrete
2592,soft_pvc
2593,soft_pvc
2594,soft_pvc
2595,soft_pvc
2596,soft_pvc
2597,tiled
2598,soft_pvc
2599,tiled
2600,soft_pvc
2601,fine_concrete
2602,wood
2603,concrete
2604,wood
2605,fine_concrete
2606,wood
2607,concrete
2608,concrete
2609,tiled
2610,concrete
2611,tiled
2612,soft_pvc
2613,concrete
2614,soft_pvc
2615,wood
2616,soft_pvc
2617,soft_pvc
2618,soft_pvc
2619,concrete
2620,wood
2621,tiled
2622,soft_pvc
2623,tiled
2624,soft_pvc
2625,soft_pvc
2626,wood
2627,concrete
2628,concrete
2629,wood
2630,fine_concrete
2631,tiled
2632,hard_tiles_large_space
2633,wood
2634,concrete
2635,fine_concrete
2636,wood
2637,concrete
2638,concrete
2639,wood
2640,concrete
2641,concrete
2642,wood
2643,concrete
2644,concrete
2645,tiled
2646,soft_pvc
2647,wood
2648,tiled
2649,soft_pvc
2650,tiled
2651,soft_pvc
2652,wood
2653,wood
2654,tiled
2655,tiled
2656,concrete
2657,soft_pvc
2658,concrete
2659,soft_pvc
2660,soft_pvc
2661,wood
2662,tiled
2663,soft_pvc
2664,soft_pvc
2665,tiled
2666,soft_pvc
2667,soft_pvc
2668,concrete
2669,soft_pvc
2670,soft_pvc
2671,hard_tiles_large_space
2672,tiled
2673,soft_pvc
2674,soft_pvc
2675,concrete
2676,soft_pvc
2677,soft_pvc
2678,tiled
2679,soft_pvc
2680,wood
2681,tiled
2682,wood
2683,tiled
2684,concrete
2685,concrete
2686,soft_pvc
2687,tiled
2688,wood
2689,wood
2690,carpet
2691,concrete
2692,soft_pvc
2693,soft_pvc
2694,wood
2695,tiled
2696,tiled
2697,tiled
2698,soft_pvc
2699,wood
2700,tiled
2701,concrete
2702,soft_pvc
2703,soft_pvc
2704,tiled
2705,soft_pvc
2706,concrete
2707,soft_pvc
2708,hard_tiles_large_space
2709,soft_pvc
2710,soft_pvc
2711,hard_tiles_large_space
2712,tiled
2713,soft_pvc
2714,fine_concrete
2715,wood
2716,hard_tiles_large_space
2717,concrete
2718,tiled
2719,soft_pvc
2720,soft_pvc
2721,tiled
2722,soft_pvc
2723,wood
2724,wood
2725,soft_pvc
2726,concrete
2727,soft_pvc
2728,wood
2729,tiled
2730,hard_tiles_large_space
2731,wood
2732,concrete
2733,soft_pvc
2734,concrete
2735,concrete
2736,concrete
2737,concrete
2738,soft_pvc
2739,soft_pvc
2740,concrete
2741,wood
2742,tiled
2743,concrete
2744,soft_pvc
2745,wood
2746,tiled
2747,concrete
2748,soft_pvc
2749,wood
2750,wood
2751,wood
2752,concrete
2753,wood
2754,concrete
2755,hard_tiles_large_space
2756,tiled
2757,soft_pvc
2758,concrete
2759,soft_pvc
2760,hard_tiles_large_space
2761,soft_pvc
2762,soft_pvc
2763,hard_tiles_large_space
2764,soft_pvc
2765,tiled
2766,concrete
2767,wood
2768,concrete
2769,concrete
2770,tiled
2771,tiled
2772,soft_pvc
2773,soft_pvc
2774,tiled
2775,soft_pvc
2776,soft_pvc
2777,wood
2778,concrete
2779,wood
2780,concrete
2781,soft_pvc
2782,soft_pvc
2783,concrete
2784,tiled
2785,tiled
2786,wood
2787,soft_pvc
2788,hard_tiles_large_space
2789,soft_pvc
2790,tiled
2791,wood
2792,wood
2793,concrete
2794,soft_pvc
2795,soft_pvc
2796,concrete
2797,wood
2798,soft_pvc
2799,concrete
2800,soft_pvc
2801,concrete
2802,soft_pvc
2803,soft_pvc
2804,concrete
2805,concrete
2806,concrete
2807,concrete
2808,concrete
2809,soft_pvc
2810,carpet
2811,fine_concrete
2812,hard_tiles_large_space
2813,soft_pvc
2814,soft_pvc
2815,wood
2816,carpet
2817,concrete
2818,concrete
2819,tiled
2820,carpet
2821,concrete
2822,soft_pvc
2823,soft_pvc
2824,concrete
2825,wood
2826,soft_pvc
2827,tiled
2828,soft_pvc
2829,soft_pvc
2830,concrete
2831,tiled
2832,soft_pvc
2833,concrete
2834,tiled
2835,soft_pvc
2836,soft_pvc
2837,soft_pvc
2838,wood
2839,soft_pvc
2840,fine_concrete
2841,soft_pvc
2842,concrete
2843,concrete
2844,hard_tiles_large_space
2845,wood
2846,wood
2847,concrete
2848,concrete
2849,tiled
2850,wood
2851,soft_pvc
2852,soft_pvc
2853,wood
2854,concrete
2855,soft_pvc
2856,wood
2857,concrete
2858,concrete
2859,soft_pvc
2860,concrete
2861,wood
2862,concrete
2863,concrete
2864,soft_pvc
2865,concrete
2866,soft_pvc
2867,tiled
2868,soft_pvc
2869,wood
2870,soft_pvc
2871,fine_concrete
2872,concrete
2873,concrete
2874,wood
2875,tiled
2876,soft_pvc
2877,concrete
2878,concrete
2879,soft_pvc
2880,hard_tiles_large_space
2881,soft_pvc
2882,concrete
2883,wood
2884,concrete
2885,wood
2886,soft_pvc
2887,soft_tiles
2888,soft_pvc
2889,concrete
2890,soft_pvc
2891,soft_pvc
2892,soft_pvc
2893,tiled
2894,soft_pvc
2895,wood
2896,soft_pvc
2897,soft_pvc
2898,soft_pvc
2899,concrete
2900,soft_pvc
2901,soft_pvc
2902,concrete
2903,concrete
2904,wood
2905,soft_pvc
2906,tiled
2907,concrete
2908,soft_pvc
2909,soft_pvc
2910,wood
2911,tiled
2912,tiled
2913,wood
2914,tiled
2915,concrete
2916,concrete
2917,concrete
2918,concrete
2919,soft_pvc
2920,soft_pvc
2921,wood
2922,concrete
2923,soft_pvc
2924,soft_pvc
2925,concrete
2926,soft_pvc
2927,soft_pvc
2928,soft_pvc
2929,soft_pvc
2930,concrete
2931,soft_pvc
2932,tiled
2933,soft_pvc
2934,soft_pvc
2935,hard_tiles_large_space
2936,concrete
2937,tiled
2938,wood
2939,concrete
2940,tiled
2941,concrete
2942,hard_tiles_large_space
2943,concrete
2944,wood
2945,concrete
2946,soft_pvc
2947,concrete
2948,tiled
2949,fine_concrete
2950,soft_pvc
2951,concrete
2952,hard_tiles_large_space
2953,hard_tiles_large_space
2954,concrete
2955,soft_pvc
2956,concrete
2957,hard_tiles_large_space
2958,concrete
2959,soft_pvc
2960,tiled
2961,concrete
2962,hard_tiles_large_space
2963,soft_pvc
2964,wood
2965,wood
2966,wood
2967,wood
2968,concrete
2969,concrete
2970,soft_pvc
2971,soft_pvc
2972,soft_pvc
2973,concrete
2974,wood
2975,wood
2976,wood
2977,soft_pvc
2978,fine_concrete
2979,soft_pvc
2980,fine_concrete
2981,concrete
2982,wood
2983,tiled
2984,soft_pvc
2985,soft_pvc
2986,concrete
2987,wood
2988,concrete
2989,soft_pvc
2990,soft_tiles
2991,concrete
2992,wood
2993,wood
2994,wood
2995,wood
2996,tiled
2997,concrete
2998,concrete
2999,soft_pvc
3000,wood
3001,soft_pvc
3002,concrete
3003,tiled
3004,wood
3005,concrete
3006,fine_concrete
3007,soft_pvc
3008,soft_pvc
3009,soft_pvc
3010,wood
3011,soft_pvc
3012,carpet
3013,soft_pvc
3014,concrete
3015,concrete
3016,wood
3017,tiled
3018,tiled
3019,wood
3020,soft_pvc
3021,concrete
3022,tiled
3023,soft_pvc
3024,fine_concrete
3025,concrete
3026,soft_pvc
3027,tiled
3028,wood
3029,soft_pvc
3030,wood
3031,concrete
3032,tiled
3033,concrete
3034,concrete
3035,wood
3036,carpet
3037,wood
3038,soft_pvc
3039,soft_pvc
3040,soft_pvc
3041,tiled
3042,hard_tiles_large_space
3043,concrete
3044,concrete
3045,wood
3046,wood
3047,wood
3048,soft_pvc
3049,soft_pvc
3050,wood
3051,soft_pvc
3052,tiled
3053,tiled
3054,hard_tiles_large_space
3055,tiled
3056,wood
3057,wood
3058,concrete
3059,concrete
3060,concrete
3061,soft_pvc
3062,wood
3063,tiled
3064,wood
3065,tiled
3066,soft_pvc
3067,soft_pvc
3068,concrete
3069,wood
3070,concrete
3071,concrete
3072,fine_concrete
3073,wood
3074,soft_pvc
3075,concrete
3076,soft_pvc
3077,concrete
3078,concrete
3079,fine_concrete
3080,soft_pvc
3081,wood
3082,concrete
3083,soft_pvc
3084,soft_pvc
3085,soft_pvc
3086,wood
3087,wood
3088,soft_pvc
3089,tiled
3090,soft_pvc
3091,hard_tiles_large_space
3092,wood
3093,wood
3094,concrete
3095,wood
3096,wood
3097,concrete
3098,soft_pvc
3099,wood
3100,tiled
3101,wood
3102,soft_pvc
3103,wood
3104,wood
3105,concrete
3106,wood
3107,soft_pvc
3108,wood
3109,hard_tiles_large_space
3110,soft_pvc
3111,concrete
3112,soft_pvc
3113,soft_pvc
3114,wood
3115,fine_concrete
3116,wood
3117,wood
3118,concrete
3119,hard_tiles_large_space
3120,concrete
3121,soft_pvc
3122,tiled
3123,wood
3124,hard_tiles_large_space
3125,concrete
3126,wood
3127,wood
3128,wood
3129,soft_pvc
3130,soft_pvc
3131,concrete
3132,tiled
3133,soft_pvc
3134,tiled
3135,concrete
3136,concrete
3137,concrete
3138,wood
3139,soft_pvc
3140,wood
3141,soft_pvc
3142,wood
3143,concrete
3144,wood
3145,soft_pvc
3146,soft_pvc
3147,concrete
3148,tiled
3149,wood
3150,tiled
3151,soft_pvc
3152,concrete
3153,soft_pvc
3154,soft_pvc
3155,wood
3156,tiled
3157,concrete
3158,concrete
3159,concrete
3160,concrete
3161,tiled
3162,concrete
3163,concrete
3164,soft_pvc
3165,concrete
3166,soft_pvc
3167,soft_pvc
3168,tiled
3169,wood
3170,soft_pvc
3171,concrete
3172,wood
3173,hard_tiles_large_space
3174,soft_pvc
3175,soft_pvc
3176,soft_pvc
3177,concrete
3178,concrete
3179,tiled
3180,wood
3181,concrete
3182,soft_pvc
3183,concrete
3184,concrete
3185,concrete
3186,soft_pvc
3187,tiled
3188,soft_pvc
3189,concrete
3190,fine_concrete
3191,concrete
3192,wood
3193,tiled
3194,wood
3195,concrete
3196,soft_pvc
3197,soft_pvc
3198,concrete
3199,concrete
3200,concrete
3201,concrete
3202,concrete
3203,concrete
3204,concrete
3205,tiled
3206,soft_pvc
3207,carpet
3208,wood
3209,tiled
3210,soft_pvc
3211,soft_pvc
3212,tiled
3213,tiled
3214,tiled
3215,wood
3216,concrete
3217,soft_pvc
3218,soft_pvc
3219,tiled
3220,tiled
3221,carpet
3222,soft_pvc
3223,concrete
3224,tiled
3225,soft_pvc
3226,concrete
3227,soft_pvc
3228,soft_pvc
3229,wood
3230,tiled
3231,soft_pvc
3232,wood
3233,concrete
3234,concrete
3235,soft_pvc
3236,soft_pvc
3237,hard_tiles_large_space
3238,soft_pvc
3239,concrete
3240,soft_pvc
3241,concrete
3242,soft_pvc
3243,concrete
3244,concrete
3245,concrete
3246,tiled
3247,concrete
3248,wood
3249,concrete
3250,soft_pvc
3251,soft_pvc
3252,fine_concrete
3253,concrete
3254,wood
3255,concrete
3256,wood
3257,wood
3258,carpet
3259,wood
3260,wood
3261,soft_pvc
3262,concrete
3263,tiled
3264,wood
3265,wood
3266,tiled
3267,hard_tiles_large_space
3268,soft_pvc
3269,soft_pvc
3270,tiled
3271,concrete
3272,tiled
3273,tiled
3274,hard_tiles_large_space
3275,soft_pvc
3276,soft_pvc
3277,wood
3278,tiled
3279,tiled
3280,fine_concrete
3281,tiled
3282,soft_pvc
3283,concrete
3284,concrete
3285,soft_pvc
3286,wood
3287,tiled
3288,tiled
3289,soft_pvc
3290,concrete
3291,wood
3292,tiled
3293,tiled
3294,concrete
3295,hard_tiles_large_space
3296,tiled
3297,tiled
3298,concrete
3299,wood
3300,soft_pvc
3301,soft_pvc
3302,soft_pvc
3303,concrete
3304,tiled
3305,tiled
3306,concrete
3307,concrete
3308,soft_pvc
3309,tiled
3310,wood
3311,wood
3312,soft_pvc
3313,concrete
3314,wood
3315,concrete
3316,concrete
3317,concrete
3318,wood
3319,concrete
3320,concrete
3321,soft_pvc
3322,soft_pvc
3323,concrete
3324,soft_pvc
3325,concrete
3326,wood
3327,soft_pvc
3328,soft_pvc
3329,hard_tiles_large_space
3330,soft_pvc
3331,concrete
3332,concrete
3333,soft_pvc
3334,concrete
3335,concrete
3336,tiled
3337,soft_pvc
3338,wood
3339,soft_pvc
3340,soft_pvc
3341,soft_pvc
3342,tiled
3343,soft_pvc
3344,soft_pvc
3345,tiled
3346,wood
3347,soft_pvc
3348,concrete
3349,carpet
3350,tiled
3351,soft_pvc
3352,tiled
3353,soft_pvc
3354,soft_pvc
3355,soft_pvc
3356,concrete
3357,soft_pvc
3358,hard_tiles_large_space
3359,concrete
3360,soft_pvc
3361,wood
3362,fine_concrete
3363,wood
3364,soft_pvc
3365,tiled
3366,tiled
3367,concrete
3368,soft_pvc
3369,soft_pvc
3370,concrete
3371,fine_concrete
3372,wood
3373,tiled
3374,wood
3375,soft_pvc
3376,soft_pvc
3377,tiled
3378,concrete
3379,fine_concrete
3380,soft_pvc
3381,concrete
3382,tiled
3383,soft_pvc
3384,concrete
3385,concrete
3386,concrete
3387,soft_pvc
3388,soft_pvc
3389,concrete
3390,tiled
3391,concrete
3392,soft_pvc
3393,soft_pvc
3394,tiled
3395,tiled
3396,soft_pvc
3397,wood
3398,tiled
3399,wood
3400,soft_pvc
3401,wood
3402,soft_pvc
3403,wood
3404,tiled
3405,tiled
3406,soft_pvc
3407,wood
3408,tiled
3409,tiled
3410,tiled
3411,soft_pvc
3412,concrete
3413,soft_pvc
3414,wood
3415,concrete
3416,soft_pvc
3417,concrete
3418,concrete
3419,concrete
3420,carpet
3421,fine_concrete
3422,fine_concrete
3423,wood
3424,wood
3425,concrete
3426,fine_concrete
3427,concrete
3428,soft_pvc
3429,concrete
3430,concrete
3431,concrete
3432,concrete
3433,concrete
3434,tiled
3435,wood
3436,wood
3437,wood
3438,wood
3439,wood
3440,soft_pvc
3441,wood
3442,carpet
3443,soft_pvc
3444,tiled
3445,concrete
3446,soft_pvc
3447,concrete
3448,soft_pvc
3449,soft_pvc
3450,soft_pvc
3451,concrete
3452,soft_pvc
3453,soft_pvc
3454,wood
3455,soft_pvc
3456,concrete
3457,soft_pvc
3458,concrete
3459,soft_pvc
3460,tiled
3461,concrete
3462,soft_pvc
3463,tiled
3464,concrete
3465,tiled
3466,concrete
3467,soft_pvc
3468,soft_pvc
3469,concrete
3470,wood
3471,wood
3472,concrete
3473,tiled
3474,hard_tiles_large_space
3475,concrete
3476,wood
3477,soft_pvc
3478,soft_pvc
3479,soft_pvc
3480,soft_pvc
3481,concrete
3482,soft_pvc
3483,soft_pvc
3484,wood
3485,concrete
3486,concrete
3487,soft_pvc
3488,tiled
3489,soft_pvc
3490,tiled
3491,wood
3492,tiled
3493,soft_pvc
3494,wood
3495,tiled
3496,concrete
3497,soft_pvc
3498,concrete
3499,wood
3500,hard_tiles_large_space
3501,wood
3502,soft_pvc
3503,hard_tiles_large_space
3504,soft_pvc
3505,fine_concrete
3506,soft_pvc
3507,tiled
3508,soft_pvc
3509,soft_pvc
3510,concrete
3511,concrete
3512,tiled
3513,concrete
3514,concrete
3515,soft_pvc
3516,soft_pvc
3517,concrete
3518,wood
3519,soft_pvc
3520,soft_pvc
3521,fine_concrete
3522,tiled
3523,soft_pvc
3524,concrete
3525,soft_pvc
3526,soft_pvc
3527,tiled
3528,wood
3529,soft_pvc
3530,soft_pvc
3531,soft_pvc
3532,tiled
3533,concrete
3534,concrete
3535,wood
3536,tiled
3537,wood
3538,concrete
3539,concrete
3540,wood
3541,tiled
3542,wood
3543,wood
3544,tiled
3545,wood
3546,soft_pvc
3547,wood
3548,fine_concrete
3549,soft_pvc
3550,tiled
3551,concrete
3552,soft_pvc
3553,tiled
3554,wood
3555,concrete
3556,carpet
3557,concrete
3558,soft_pvc
3559,soft_pvc
3560,tiled
3561,concrete
3562,fine_concrete
3563,fine_concrete
3564,soft_pvc
3565,soft_pvc
3566,soft_pvc
3567,wood
3568,soft_pvc
3569,tiled
3570,wood
3571,soft_pvc
3572,wood
3573,concrete
3574,hard_tiles_large_space
3575,concrete
3576,soft_pvc
3577,concrete
3578,soft_pvc
3579,tiled
3580,concrete
3581,concrete
3582,fine_concrete
3583,soft_pvc
3584,wood
3585,hard_tiles_large_space
3586,soft_pvc
3587,soft_pvc
3588,soft_pvc
3589,wood
3590,soft_pvc
3591,hard_tiles_large_space
3592,tiled
3593,concrete
3594,concrete
3595,hard_tiles_large_space
3596,tiled
3597,wood
3598,wood
3599,hard_tiles_large_space
3600,fine_concrete
3601,tiled
3602,soft_pvc
3603,wood
3604,concrete
3605,concrete
3606,concrete
3607,soft_pvc
3608,soft_pvc
3609,concrete
3610,concrete
3611,soft_pvc
3612,concrete
3613,tiled
3614,concrete
3615,tiled
3616,soft_pvc
3617,soft_pvc
3618,soft_pvc
3619,soft_pvc
3620,concrete
3621,tiled
3622,wood
3623,soft_pvc
3624,concrete
3625,tiled
3626,soft_pvc
3627,soft_pvc
3628,tiled
3629,wood
3630,wood
3631,soft_pvc
3632,concrete
3633,wood
3634,tiled
3635,soft_pvc
3636,hard_tiles_large_space
3637,concrete
3638,tiled
3639,concrete
3640,hard_tiles_large_space
3641,concrete
3642,soft_pvc
3643,concrete
3644,tiled
3645,soft_pvc
3646,concrete
3647,soft_pvc
3648,soft_pvc
3649,soft_pvc
3650,soft_pvc
3651,wood
3652,soft_pvc
3653,soft_pvc
3654,concrete
3655,concrete
3656,fine_concrete
3657,soft_pvc
3658,tiled
3659,fine_concrete
3660,concrete
3661,tiled
3662,soft_pvc
3663,fine_concrete
3664,concrete
3665,soft_pvc
3666,hard_tiles_large_space
3667,wood
3668,concrete
3669,concrete
3670,soft_pvc
3671,concrete
3672,soft_pvc
3673,concrete
3674,tiled
3675,tiled
3676,wood
3677,concrete
3678,concrete
3679,fine_concrete
3680,concrete
3681,tiled
3682,hard_tiles_large_space
3683,concrete
3684,wood
3685,tiled
3686,concrete
3687,concrete
3688,concrete
3689,wood
3690,tiled
3691,concrete
3692,tiled
3693,wood
3694,soft_pvc
3695,soft_pvc
3696,wood
3697,soft_pvc
3698,wood
3699,soft_pvc
3700,wood
3701,concrete
3702,soft_pvc
3703,tiled
3704,soft_pvc
3705,tiled
3706,wood
3707,soft_pvc
3708,tiled
3709,concrete
3710,concrete
3711,wood
3712,concrete
3713,concrete
3714,concrete
3715,soft_pvc
3716,concrete
3717,concrete
3718,concrete
3719,tiled
3720,tiled
3721,hard_tiles_large_space
3722,concrete
3723,tiled
3724,hard_tiles_large_space
3725,wood
3726,concrete
3727,tiled
3728,wood
3729,wood
3730,soft_pvc
3731,soft_pvc
3732,tiled
3733,soft_pvc
3734,concrete
3735,concrete
3736,soft_pvc
3737,wood
3738,wood
3739,soft_pvc
3740,soft_pvc
3741,concrete
3742,tiled
3743,soft_pvc
3744,concrete
3745,wood
3746,concrete
3747,concrete
3748,concrete
3749,wood
3750,soft_pvc
3751,soft_pvc
3752,wood
3753,soft_pvc
3754,wood
3755,soft_pvc
3756,wood
3757,soft_pvc
3758,wood
3759,hard_tiles_large_space
3760,fine_concrete
3761,fine_concrete
3762,concrete
3763,tiled
3764,concrete
3765,soft_pvc
3766,concrete
3767,tiled
3768,soft_pvc
3769,soft_pvc
3770,tiled
3771,soft_pvc
3772,concrete
3773,concrete
3774,soft_pvc
3775,tiled
3776,concrete
3777,concrete
3778,concrete
3779,soft_pvc
3780,soft_pvc
3781,soft_pvc
3782,tiled
3783,soft_pvc
3784,soft_pvc
3785,tiled
3786,concrete
3787,concrete
3788,hard_tiles_large_space
3789,tiled
3790,concrete
3791,hard_tiles_large_space
3792,soft_pvc
3793,wood
3794,concrete
3795,wood
3796,hard_tiles_large_space
3797,concrete
3798,wood
3799,fine_concrete
3800,soft_pvc
3801,wood
3802,wood
3803,concrete
3804,concrete
3805,soft_pvc
3806,tiled
3807,soft_pvc
3808,tiled
3809,hard_tiles_large_space
3810,concrete
3811,soft_pvc
3812,wood
3813,concrete
3814,concrete
3815,wood
